MAP566 - Stats in Action - Multiple Testing
…
In our example, the first five tests would be significant with \alpha=0.25, which means that we expect no more than 25% of these 5 tests to be false discoveries.

Remark 1: The BH procedure is equivalent to consider as significant the non adjusted p-values smaller than a threshold P_{\rm BH} defined as

 P_{\rm BH} = \max_i \left\{ P_{(i)}: \ \ P_{(i)} \leq \alpha \frac{i}{m}  \right\} 

In other words, the largest p-value that has P_{(i)}<(i/m)\alpha is significant, and all of the p-values smaller than it are also significant, even the ones that aren’t less than their Benjamini-Hochberg critical value \alpha \times i/m

alpha <- 0.25
m <- nrow(data)
data$critical.value <- (1:m)/m*alpha
data

# A tibble: 25 × 4
   dietary           `p-value`  p.bh critical.value
   <fct>                 <dbl> <dbl>          <dbl>
 1 Total calories        0.001 0.025           0.01
 2 Olive oil             0.008 0.1             0.02
 3 Whole milk            0.039 0.21            0.03
 4 White meat            0.041 0.21            0.04
 5 Proteins              0.042 0.21            0.05
 6 Nuts                  0.061 0.254           0.06
 7 Cereals and pasta     0.074 0.264           0.07
 8 White fish            0.205 0.491           0.08
 9 Butter                0.212 0.491           0.09
10 Vegetables            0.216 0.491           0.1 
# … with 15 more rows
…
